{
  "firstName": "Author",
  "lastName": "Author",
  "affiliation": "Automatic checks",
  "email": "author1@hindawi.com",
  "username": "author1@hindawi.com",
  "country": "Australia",
  "title": "Professor"
}
