{
  "_declaration": {
    "_attributes": {
      "version": "1.0",
      "encoding": "utf-8"
    }
  },
  "_doctype": "article SYSTEM \"JATS-archivearticle1-mathml3.dtd\"",
  "article": {
    "_attributes": {
      "dtd-version": "1.1d1",
      "article-type": "Research Article"
    },
    "front": {
      "journal-meta": {
        "journal-id": [
          {
            "_attributes": {
              "journal-id-type": "publisher"
            },
            "_text": "BCA"
          },
          {
            "_attributes": {
              "journal-id-type": "email"
            },
            "_text": "bca.support@hindawi.com"
          }
        ],
        "journal-title-group": {
          "journal-title": {
            "_text": "Bioinorganic Chemistry and Applications"
          }
        },
        "issn": [
          {
            "_attributes": {
              "pub-type": "ppub"
            },
            "_text": "2474-7394"
          },
          {
            "_attributes": {
              "pub-type": "epub"
            }
          }
        ]
      },
      "article-meta": {
        "article-id": [
          {
            "_attributes": {
              "pub-id-type": "publisher-id"
            },
            "_text": "BCA-5402665"
          },
          {
            "_attributes": {
              "pub-id-type": "manuscript"
            },
            "_text": "BCA-5402665"
          }
        ],
        "article-categories": {
          "subj-group": {
            "_attributes": {
              "subj-group-type": "Article Type"
            },
            "subject": {
              "_text": "Review Article"
            }
          }
        },
        "title-group": {
          "article-title": {
            "_text": "Advances in iron compounds as biological agents"
          }
        },
        "contrib-group": {
          "contrib": {
            "_attributes": {
              "contrib-type": "author",
              "corresp": "Yes"
            },
            "role": {
              "_attributes": {
                "content-type": "1"
              }
            },
            "name": {
              "surname": {
                "_text": "Ayodele"
              },
              "given-names": {
                "_text": "Odularu"
              },
              "prefix": {
                "_text": "dr"
              }
            },
            "email": {
              "_text": "201106223@ufh.ac.za"
            },
            "xref": {
              "_attributes": {
                "ref-type": "aff",
                "rid": "aff1"
              }
            }
          },
          "aff": {
            "_attributes": {
              "id": "aff1"
            },
            "country": {
              "_text": "ZA"
            },
            "addr-line": {
              "_text": "University of Fort Hare, Alice 5700, South Africa"
            }
          }
        },
        "history": {
          "date": {
            "_attributes": {
              "date-type": "received"
            },
            "day": {
              "_text": "24"
            },
            "month": {
              "_text": "10"
            },
            "year": {
              "_text": "2018"
            }
          }
        },
        "abstract": {
          "_text": "Abstract\nThis mini review gives a report of the progresses in the use of iron compounds as biological agents. Review entails coordination of ligands in form of pharmaceutical drugs, reagents used directly as supplied, synthesized organic compounds and natural products from plants to iron(II) or iron(III) ions to yield compounds which were applied as antibacterial, iron natural product, antioxidant and anticancer agents. In addition, in the aspect of material chemistry, holistic application of iron nanoparticles was assessed in relation to health. Iron nanoparticles are best approaches to apply as biological agents when compared to bulk materials because of its affordable, biocompatibity, biodegradability, simple approach to synthesis, ease of modification and non-toxic nature.\n\nKeywords: history of iron; chemistry of iron, uses of iron compounds, iron nanoparticles; biological screening techniques\n"
        },
        "funding-group": {}
      },
      "rev-group": {
        "rev": [
          {
            "_attributes": {
              "rev-type": "reviewer"
            },
            "name": {
              "surname": {
                "_text": "Mohammed"
              },
              "given-names": {
                "_text": "Rizk"
              },
              "prefix": {
                "_text": "dr"
              }
            },
            "email": {
              "_text": "mohammed.rizk@hindawi.com"
            },
            "xref": {
              "_attributes": {
                "ref-type": "aff",
                "rid": "aff1"
              }
            },
            "date": [
              {
                "_attributes": {
                  "date-type": "assignment"
                },
                "day": {
                  "_text": "24"
                },
                "month": {
                  "_text": "10"
                },
                "year": {
                  "_text": "2018"
                }
              },
              {
                "_attributes": {
                  "date-type": "submission"
                },
                "day": {
                  "_text": "24"
                },
                "month": {
                  "_text": "10"
                },
                "year": {
                  "_text": "2018"
                }
              }
            ],
            "comment": {
              "_attributes": {
                "comment-type": ""
              },
              "_text": "\n                This article is really great! well written and does not need any update. Please publish it as such\n        "
            }
          },
          {
            "_attributes": {
              "rev-type": "editor"
            },
            "name": {
              "surname": {
                "_text": "Matt"
              },
              "given-names": {
                "_text": "Green"
              },
              "prefix": {
                "_text": "dr"
              }
            },
            "email": {
              "_text": "matt.green@hindawi.com"
            },
            "xref": {
              "_attributes": {
                "ref-type": "aff",
                "rid": "aff1"
              }
            },
            "date": [
              {
                "_attributes": {
                  "date-type": "assignment"
                },
                "day": {
                  "_text": "24"
                },
                "month": {
                  "_text": "10"
                },
                "year": {
                  "_text": "2018"
                }
              },
              {
                "_attributes": {
                  "date-type": "submission"
                },
                "day": {
                  "_text": "24"
                },
                "month": {
                  "_text": "10"
                },
                "year": {
                  "_text": "2018"
                }
              }
            ],
            "comment": [
              {
                "_attributes": {
                  "comment-type": "comment"
                },
                "_text": "\n                  Public comment for the author.\n          "
              },
              {
                "_attributes": {
                  "comment-type": "Confidential"
                },
                "_text": "\n                  Internal staff comment.\n          "
              }
            ]
          }
        ],
        "aff": {
          "_attributes": {
            "id": "aff1"
          },
          "country": {
            "_text": "ZA"
          },
          "addr-line": {
            "_text": "University of Fort Hare, Alice 5700, South Africa"
          }
        }
      },
      "files": {
        "file": {
          "item_type": {
            "_text": "manuscripts"
          },
          "item_description": {
            "_text": "23 2018.docx"
          },
          "item_name": {
            "_text": "23 2018.docx"
          }
        }
      },
      "questions": {
        "question": [
          {
            "_attributes": {
              "type": "COI"
            },
            "answer": {
              "_text": "No"
            },
            "statement": {}
          },
          {
            "_attributes": {
              "type": "DA"
            },
            "answer": {
              "_text": "No"
            },
            "statement": {
              "_text": "The asuthors for this paper did not provide a data availability statement"
            }
          },
          {
            "_attributes": {
              "type": "Fund"
            },
            "answer": {
              "_text": "Yes"
            },
            "statement": {}
          }
        ]
      }
    }
  }
}