[
  "@pubsweet/component-send-email",
  "@pubsweet/component-email-templating",
  "component-reviewer-suggestions",
  "component-model",
  "component-activity-log",
  "component-authentication",
  "component-submission",
  "component-admin",
  "component-user-profile",
  "component-screening",
  "component-quality-check",
  "component-dashboard",
  "component-files",
  "component-peer-review",
  "component-jobs",
  "component-sso"
]
