{
  "optionField": "[role='option']",
  "listboxField": "[role='listbox']",
  "checkboxField": "[type='checkbox']",
  "registerAffiliationField": "[name='aff']",
  "submit": "[type='submit']",
  "currentPassword": "input[name='currentPassword']",
  "retypePassword": "[name='confirmPassword']",
  "newPassword": "[name='password']"
}